
strategic_region={
	id=10
	name="STRATEGICREGION_10"
	provinces={
		12978 12999 13090 13108 13128 13134 13217 13227 13304 13309 13415 13418 13482 13528 13553 13558 13563 13571 13576 13617 13646 13681 13696 13725 13764 13802 13835 13862 13993 
	}
	naval_terrain=water_deep_ocean
	weather={
	}
}
