
strategic_region={
	id=12
	name="STRATEGICREGION_12"
	provinces={
		12958 12961 12976 13091 13116 13119 13194 13202 13207 13215 13241 13248 13322 13352 13367 13382 13393 13394 13397 13456 13496 13505 13564 13566 13592 13630 13658 13716 13749 13831 13854 13865 13879 13883 13919 13920 13928 13937 13940 13941 13944 
	}
	naval_terrain=water_deep_ocean
	weather={
	}
}
