
strategic_region={
	id=21
	name="STRATEGICREGION_21"
	provinces={
		12962 12967 13018 13025 13050 13197 13260 13269 13348 13354 13360 13374 13412 13460 13468 13597 13690 13697 13714 13717 13963 13966 13969 13971 13975 
	}
	naval_terrain=water_fjords
	weather={
	}
}
