
strategic_region={
	id=23
	name="STRATEGICREGION_23"
	provinces={
		12948 12960 13092 13137 13169 13218 13239 13361 13395 13454 13490 13500 13509 13582 13591 13610 13676 13685 13726 13741 13775 13784 13857 13877 13911 13961 
	}
	weather={
	}
}
