
strategic_region={
	id=29
	name="STRATEGICREGION_29"
	provinces={
		12941 13007 13019 13051 13057 13065 13076 13152 13172 13193 13211 13259 13280 13286 13288 13311 13323 13333 13339 13347 13414 13424 13427 13434 13439 13473 13510 13518 13526 13538 13568 13575 13600 13648 13656 13668 13687 13700 13709 13729 13793 13805 13896 13897 13905 13930 13932 13956 13958 
	}
	naval_terrain=water_deep_ocean
	weather={
	}
}
