
strategic_region={
	id=3
	name="STRATEGICREGION_3"
	provinces={
		5 179 197 203 208 249 274 280 304 332 360 370 399 463 471 544 545 546 606 718 761 765 801 812 819 854 974 1046 1072 1111 1113 1130 1195 1366 1412 1466 1528 1611 1689 1706 1754 1761 1868 1903 1972 2031 2062 2116 2273 2321 2670 2754 2776 2834 2892 2926 2931 3050 3071 3086 3102 3189 3208 3313 3336 3378 3443 3484 3501 3505 3536 3545 3553 3564 3589 3618 3658 3661 3757 3833 4057 4146 4164 4173 4254 4329 4412 4487 4575 4620 4689 4709 4720 4786 4821 4863 4911 4932 5048 5123 5136 5169 5181 5188 5215 5232 5267 5290 5298 5304 5330 5346 5353 5547 5577 5608 5645 5678 5785 5849 5851 5854 5855 5856 5930 5942 5964 6002 6074 6112 6130 6138 6150 6168 6176 6210 6268 6332 6359 6487 6529 6544 6546 6619 6635 6749 6795 6829 6866 6868 6900 6907 6935 6994 7061 7065 7079 7126 7138 7229 7248 7266 7316 7496 7521 7558 7701 7764 7902 7912 7972 8021 8064 8096 8159 8177 8212 8233 8339 8347 8424 8453 8454 8537 8623 8661 8748 8766 8785 8792 8809 8839 8896 8990 9004 9010 9011 9071 9131 9171 9182 9187 9227 9268 9309 9322 9338 9347 9442 9638 9732 9744 10959 10991 11005 11013 11025 11042 11044 11067 11082 11089 11090 11106 11114 11118 11120 11136 11152 11175 11210 11226 11232 11236 11253 11265 11268 11277 11281 11331 11339 11360 11376 11381 11391 11392 11421 11439 11440 11457 11475 11484 11488 11503 11521 11540 11550 11562 11598 11616 11631 11632 11661 11665 11694 11702 11713 11731 11738 11742 11744 11747 11748 11775 11785 11795 12805 12808 12809 12810 12811 12812 12813 12814 12815 12816 12817 12818 12833 12834 12837 12838 12839 12843 12844 12845 12847 12848 12849 12850 12851 12852 12854 12855 12856 12858 12860 12861 12862 12863 12864 12867 12868 12869 12870 12871 12872 12873 12874 12877 12878 12879 12881 12884 12886 12887 12888 12890 12891 12893 12895 12896 12897 12898 12899 12900 12901 12902 12903 12904 12905 12906 12907 12908 12909 12910 12911 12912 12913 12914 12915 12916 12917 12918 12919 12920 12921 12922 12923 12924 12925 12926 12927 12928 12929 12931 12932 12933 12934 12935 12936 
	}
	weather={
		period={
			between={ 0.0 30.0 }
			temperature={ -10.0 35.0 }
			temperature_day_night={ 2.0 -2.0 }
			no_phenomenon=1.500
			rain_light=0.250
			rain_heavy=0.100
			snow=0.000
			blizzard=0.000
			arctic_water=0.000
			mud=0.000
			sandstorm=1.000
			min_snow_level=0.000
		}
	}
}
