strategic_region={
	id=38
	name="STRATEGICREGION_38"
	provinces={
		23 426 709 722 946 1010 1061 1089 1486 1597 1714 1757 1804 1894 2058 2266 2491 2751 2772 2871 2959 3072 3197 3343 3652 3674 3846 3911 4043 4047 4094 4336 4458 4463 4489 4627 4880 5022 5307 5498 5619 5803 5874 6043 6120 6259 6412 6710 6810 6904 6966 7013 7446 7792 7808 7933 7940 8044 8056 8097 8292 8374 8393 8405 8893 9295 9318 9465 10253 10262 10280 10315 10374 10427 10441 10447 10475 10488 10514 10524 10537 10549 10561 10575 10576 10578 10591 10615 10627 10635 10648 10664 10679 
	}
	weather={
	}
}
