strategic_region={
	id=42
	name="STRATEGICREGION_42"
	provinces={
		21 30 40 60 297 303 308 466 717 1211 1220 1315 1371 1704 1752 1886 2257 2446 2561 2655 2745 2786 2911 2932 2937 3017 3110 3118 3440 3457 3489 4260 4340 4563 4757 4760 4823 4827 4979 5056 5357 5395 5494 5561 5563 5664 5818 5878 5925 6179 6287 6318 6364 6501 6509 6626 6805 7090 7112 7166 7180 7184 7260 7777 8059 8384 8419 8459 8551 8670 8734 8779 8849 8868 8882 8923 8963 9008 9382 9428 9583 9593 9603 9620 9643 9647 9685 9686 9691 9695 9699 9709 9724 9735 9738 9761 9764 9777 9791 9801 9835 9870 9953 9968 
	}
	weather={
	}
}
