
strategic_region={
	id=49
	name="STRATEGICREGION_49"
	provinces={
		19 90 206 243 264 276 356 445 543 699 755 897 902 976 1217 1227 1427 1428 1430 1473 1544 1577 1595 1916 2196 2412 2486 2577 2800 2883 2889 2917 3053 3356 3587 3630 3639 3799 3936 3946 4046 4155 4291 4315 4317 4499 4587 4846 4859 5090 5162 5203 5649 5763 5807 5933 5967 6000 6052 6278 6296 6431 6538 6683 6689 6823 7113 7323 7624 7822 8029 8052 8275 8300 8358 8438 8465 8507 8838 8863 8936 8975 9042 9147 9323 9384 9386 9391 9459 11048 11088 11107 11126 11130 11132 11167 11172 11212 11228 11235 11256 11264 11266 11280 11291 11323 11330 11358 11398 11399 11407 11420 11443 11449 11483 
	}
	weather={
	}
}
