
strategic_region={
	id=55
	name="STRATEGICREGION_55"
	provinces={
		57 76 295 375 380 491 630 704 731 770 967 1102 1230 1306 1357 1554 1599 1712 1766 1794 1912 1979 2096 2110 2169 2178 2232 2352 2372 2404 2623 2654 2789 2997 3137 3150 3421 3530 3780 3849 3868 3901 3984 4157 4209 4374 4415 4598 4725 4746 4796 4936 5040 5221 5241 5328 5355 5371 5453 5460 5477 5591 5732 5760 5839 5850 5868 5891 5910 6047 6153 6169 6280 6346 6357 6445 6474 6532 6574 6659 6943 7037 7097 7152 7170 7261 7334 7394 7454 7455 7546 7615 7627 7658 7721 7775 7799 7804 8057 8110 8267 8368 8373 8381 8451 8483 8535 8765 8784 8853 9047 9162 9296 9618 9650 9681 9690 9698 9721 9722 9739 9743 9749 9751 9759 9760 9776 9778 9789 9795 9804 9821 9856 9862 9863 9871 9874 9881 9887 9890 9891 9892 9908 9912 9920 9922 9924 
	}
	weather={
	}
}
