
strategic_region={
	id=6
	name="STRATEGICREGION_6"
	provinces={
		13183 13189 13301 13314 13316 13340 13640 13677 13728 13756 13796 13811 13860 14008 14010 14011 
	}
	naval_terrain=water_shallow_sea
	weather={
	}
}
