strategic_region={
	id=63
	name="STRATEGICREGION_63"
	provinces={
		137 211 341 383 440 598 612 901 1099 1117 1239 1240 1526 1763 1780 1786 1788 1890 1989 2422 2669 2746 2907 3095 3140 3452 3555 3712 3880 3885 3997 4195 4247 4274 4448 4592 5150 5682 5699 5714 5793 5805 5871 5899 5952 6040 6370 6411 6461 6566 6599 6681 6701 6751 6849 6944 7242 7325 7445 7973 7992 8151 8173 8335 8350 8658 8837 8840 8992 9153 9161 9275 9286 9348 9663 9664 9670 9672 9673 9676 9680 9703 9704 9712 9719 9726 9740 9748 9754 9763 9781 9797 9820 9822 9843 9855 9864 9865 9882 9915 9927 9928 9940 9947 9964 9975 10042 
	}
	weather={
	}
}
