strategic_region={
	id=70
	name="STRATEGICREGION_70"
	provinces={
		46 116 124 157 183 188 212 219 502 602 616 618 693 715 751 773 802 825 911 926 933 1019 1024 1040 1041 1145 1204 1340 1347 1355 1386 1453 1624 1732 1772 1773 1778 1891 1996 2039 2050 2155 2242 2251 2261 2262 2296 2467 2574 2629 2661 2662 2684 2736 2817 2946 2993 3011 3129 3242 3324 3375 3453 3454 3461 3492 3504 3535 3677 4213 4258 4265 4301 4355 4534 4568 4586 4607 4628 4733 4778 5013 5182 5191 5317 5344 5381 5416 5486 5511 5518 5536 5584 5647 5675 5694 5776 5840 5889 6170 6215 6267 6274 6302 6325 6376 6397 6447 6460 6475 6505 6535 6551 6588 6667 6740 6763 6854 6885 6959 6970 7019 7044 7092 7111 7133 7208 7212 7250 7340 7350 7441 7541 7548 7733 7795 7849 7914 7926 7968 7970 8109 8355 8445 8479 8530 8629 8724 8961 8965 8983 8988 9038 9086 9101 9113 9179 9186 9218 9339 9401 9426 9456 11825 11830 11835 11836 11846 11850 11872 11873 11910 11932 11935 11956 11957 11962 11990 12022 12065 12077 12095 12096 12119 12120 12132 12151 12167 12173 12188 12190 12222 12232 12260 12264 12265 12275 12280 12300 12344 12362 12380 12409 12412 12417 12434 12435 12436 12444 12447 12473 12520 12532 
	}
	weather={
	}
}
