strategic_region={
	id=73
	name="STRATEGICREGION_73"
	provinces={
		14 114 134 136 155 172 248 284 306 407 480 484 610 739 829 861 867 923 930 1007 1008 1032 1033 1083 1100 1143 1235 1248 1261 1398 1444 1593 1640 1679 1764 1792 1824 1828 1884 2029 2061 2103 2237 2245 2314 2406 2450 2469 2519 2544 2587 2701 2773 2972 2982 3048 3119 3186 3267 3417 3424 3451 3657 3679 3828 3892 3983 4087 4111 4139 4166 4215 4220 4242 4261 4304 4360 4438 4439 4566 4578 4589 4797 4806 4808 4822 4934 4954 4976 5003 5015 5037 5058 5089 5095 5104 5186 5244 5313 5362 5366 5430 5449 5687 5704 5741 5808 5951 5982 5984 6009 6025 6127 6142 6148 6161 6172 6243 6253 6568 6575 6905 6930 6937 7026 7384 7430 7434 7534 7543 7570 7651 7655 7681 7685 7756 7786 7812 7816 7828 7922 7952 8070 8117 8122 8146 8223 8298 8329 8369 8595 8635 8676 8681 8750 8924 8929 8952 9150 9157 9195 9252 9303 9326 9355 10263 10267 10281 10288 10316 10317 10342 10344 10365 10366 10379 10385 10394 10403 10405 10411 10438 10442 10443 10454 10458 10464 10471 10493 10505 10519 10527 10542 10543 10582 10588 10620 10624 10630 10631 10663 10672 10685 10690 10691 10737 10744 10747 10769 10788 10796 10797 10815 10824 10835 10837 10874 10907 10973 10989 11079 11101 
	}
	weather={
	}
}
