
strategic_region={
	id=8
	name="STRATEGICREGION_8"
	provinces={
		6515 7549 9155 9613 12842 12857 12859 12865 13031 13068 13080 13095 13120 13148 13155 13185 13203 13268 13296 13300 13327 13372 13375 13410 13431 13432 13443 13467 13478 13511 13559 13569 13607 13619 13680 13704 13867 13900 13907 13912 13967 13973 13977 13983 13990 
	}
	naval_terrain=water_shallow_sea
	weather={
	}
}
