
strategic_region={
	id=83
	name="STRATEGICREGION_83"
	provinces={
		62 103 198 231 289 337 386 462 464 490 666 695 841 981 1152 1194 1213 1318 1448 1641 1729 1904 1950 1971 1973 2072 2120 2184 2377 2495 2536 2566 2690 2767 2778 2858 3159 3230 3244 3345 3385 3427 3597 3613 3654 3693 3847 3953 4119 4127 4407 4501 4533 4828 5422 5535 5601 5825 5859 5904 5907 6197 6219 6502 6855 6964 6965 6982 6996 7254 7283 7300 7341 7621 7638 7646 7671 7694 7713 7818 7847 7898 7903 7946 7947 8129 8168 8216 8316 8460 8497 8520 8531 8560 8632 8808 8862 8906 8953 9457 9466 12017 12059 12081 12097 12115 12125 12126 12156 12157 12192 12194 12198 12202 12229 12242 12245 12253 12295 12301 12314 12321 12327 12340 12354 12355 12379 12382 12388 12429 12449 12452 12490 12543 12558 
	}
	weather={
	}
}
