
strategic_region={
	id=84
	name="STRATEGICREGION_84"
	provinces={
		227 730 756 843 943 1084 1129 1767 1965 2108 2347 2440 2588 2650 2752 3270 3759 3759 3760 4108 4135 4135 4253 4263 4479 4535 4773 5152 5333 5443 5594 5618 5729 5798 5885 6029 6103 6224 6229 6266 6322 6470 6604 6651 6871 7127 7825 7881 8150 8231 8626 8880 9076 9396 9433 9433 12536 12542 12562 12583 12586 12588 12595 12606 12621 12642 12652 12672 12681 12688 12691 12708 12740 12741 12766 12780 12788 12792 
	}
	weather={
	}
}
