
state={
	id=157
	name="STATE_157"

	history={
		owner = SIA
		buildings = {
			infrastructure = 4

		}
		add_core_of = SIA

	}

	provinces={
		809 1272 1375 1949 2666 2726 3121 3291 3303 3668 4131 4218 4714 4955 5655 5717 6369 6510 6536 6987 8196 8995 10804 10877 10908 10915 10916 10920 10934 10958 10983 10997 
	}
	manpower=322900
	buildings_max_level_factor=1.000
	state_category=town
}
