
state={
	id=172
	name="STATE_172"

	history={
		owner = ARG
		buildings = {
			infrastructure = 4

		}
		add_core_of = ARG

	}

	provinces={
		839 1166 1507 1854 2828 3153 3221 3308 3928 4895 5198 5657 5826 6392 6498 6576 6670 6787 7408 7759 8360 8447 8866 9037 9799 9802 9816 9817 9840 9869 9878 9894 9926 9930 
	}
	manpower=322900
	buildings_max_level_factor=1.000
	state_category=town
}
