
state={
	id=185
	name="STATE_185"

	history={
		owner = ENG
		buildings = {
			infrastructure = 4

		}
		add_core_of = ENG

	}

	provinces={
		335 389 391 1090 2043 2434 2474 3331 3832 4270 4646 4868 5423 7020 7171 7386 7603 7901 8144 8933 9306 10066 10176 10250 10269 
	}
	manpower=322900
	buildings_max_level_factor=1.000
	state_category=town
}
