
state={
	id=189
	name="STATE_189"

	history={
		owner = JAP
		buildings = {
			infrastructure = 4

		}
		add_core_of = JAP

	}

	provinces={
		292 1460 1609 2278 2282 3233 3323 4056 5023 5835 5971 6426 7597 7784 9331 9340 10323 10404 10426 10456 10535 10560 
	}
	manpower=322900
	buildings_max_level_factor=1.000
	state_category=town
}
