
state={
	id=190
	name="STATE_190"

	history={
		owner = INS
		buildings = {
			infrastructure = 4

		}
		add_core_of = INS

	}

	provinces={
		94 345 579 833 860 1256 1283 1384 1506 1545 1881 2272 2358 2399 3058 3212 3707 3769 4161 4325 4394 4403 4476 4685 4992 5320 5352 7385 8017 8349 8617 9070 9298 10563 10568 10618 10636 10643 10669 10682 10683 10693 10715 10730 
	}
	manpower=322900
	buildings_max_level_factor=1.000
	state_category=town
}
