
state={
	id=199
	name="STATE_199"

	history={
		owner = USA
		buildings = {
			infrastructure = 4

		}
		add_core_of = USA

	}

	provinces={
		1177 1557 1606 2354 3169 4066 6046 6526 7356 7820 9305 11575 11586 11629 11638 11644 11673 
	}
	manpower=322900
	buildings_max_level_factor=1.000
	state_category=town
}
