
state={
	id=2
	name="STATE_2"

	history={
		owner = KOR
		buildings = {
			infrastructure = 4

		}
		add_core_of = KOR

	}

	provinces={
		896 1284 1687 1919 2011 2604 2675 2983 3066 3306 3357 3822 4416 4706 4732 5281 5319 6565 6945 7110 7145 7299 7499 8729 8775 9095 9197 9413 9471 9473 9475 9485 9496 9508 
	}
	manpower=322900
	buildings_max_level_factor=1.000
	state_category=town
}
