
state={
	id=211
	name="STATE_211"

	history={
		owner = AFR
		buildings = {
			infrastructure = 4

		}
		add_core_of = AFR

	}

	provinces={
		414 741 1414 1525 1571 1781 2037 2538 3459 3487 4030 5369 5767 6682 7787 7864 8542 8621 8756 9461 11417 11446 11453 11477 11506 11511 
	}
	manpower=322900
	buildings_max_level_factor=1.000
	state_category=town
}
