
state={
	id=218
	name="STATE_218"

	history={
		owner = CHI
		buildings = {
			infrastructure = 4

		}
		add_core_of = CHI

	}

	provinces={
		520 954 998 1060 1136 1299 1596 1645 2605 2774 3203 3560 4271 4474 4611 5145 5286 5359 5503 5920 6822 7004 7122 7440 7544 7609 8249 9332 11711 11796 11820 11874 11907 11933 12015 12019 
	}
	manpower=322900
	buildings_max_level_factor=1.000
	state_category=town
}
