
state={
	id=223
	name="STATE_223"

	history={
		owner = AFR
		buildings = {
			infrastructure = 4

		}
		add_core_of = AFR

	}

	provinces={
		95 272 766 792 882 886 1045 1221 1908 1915 2161 2602 2671 3155 3338 3508 3815 3941 4083 4096 4122 4354 4887 5733 6990 7317 7332 7589 7696 7790 8434 8674 9110 9154 9221 11512 11516 11536 11569 11595 11657 11674 11685 11695 11708 11721 11755 11758 11822 11824 11914 
	}
	manpower=322900
	buildings_max_level_factor=1.000
	state_category=town
}
