
state={
	id=228
	name="STATE_228"

	history={
		owner = CHI
		buildings = {
			infrastructure = 4

		}
		add_core_of = CHI

	}

	provinces={
		258 940 1029 1440 2387 2444 3429 4159 4466 4845 5035 5753 5997 6887 7362 7873 7925 11815 11885 11939 11971 11980 12023 
	}
	manpower=322900
	buildings_max_level_factor=1.000
	state_category=town
}
