
state={
	id=229
	name="STATE_229"

	history={
		owner = EUR
		buildings = {
			infrastructure = 4

		}
		add_core_of = EUR

	}

	provinces={
		1353 1442 1562 1882 3533 3572 4077 4089 4540 4901 4957 5041 5400 5434 5590 5747 6341 6386 6850 7120 8516 8671 8749 11641 11668 11676 11724 11817 11839 11878 11894 11973 
	}
	manpower=322900
	buildings_max_level_factor=1.000
	state_category=town
}
