
state={
	id=235
	name="STATE_235"

	history={
		owner = EUR
		buildings = {
			infrastructure = 4

		}
		add_core_of = EUR

	}

	provinces={
		16 835 1517 1798 2886 3772 4359 4793 5534 6992 7942 8107 8869 9297 11743 11765 11863 
	}
	manpower=322900
	buildings_max_level_factor=1.000
	state_category=town
}
