
state={
	id=242
	name="STATE_242"

	history={
		owner = EUR
		buildings = {
			infrastructure = 4

		}
		add_core_of = EUR

	}

	provinces={
		22 372 732 826 1050 4158 5098 5517 6248 6862 7956 12545 12579 12592 12597 12647 12667 
	}
	manpower=322900
	buildings_max_level_factor=1.000
	state_category=town
}
