
state={
	id=273
	name="STATE_273"

	history={
		owner = EUR
		buildings = {
			infrastructure = 4

		}
		add_core_of = EUR

	}

	provinces={
		117 147 245 428 945 1374 1480 3147 3314 3629 4299 4556 4949 5501 5545 5661 6104 6187 6423 7042 7234 7278 7592 7760 7905 8410 8473 8695 12185 12325 12330 12370 12419 12423 12454 
	}
	manpower=322900
	buildings_max_level_factor=1.000
	state_category=town
}
