
state={
	id=281
	name="East Tharsis"
	manpower=322900

		history={
		victory_points = {
			4929 25	
		}
		victory_points = {
			2837 10	
		}

		owner = USA
		buildings = {
			infrastructure = 3

		}
		add_core_of = USA

	}
	state_category = large_city

	provinces={
		1056 1134 1394 1630 1771 2790 2837 3041 3220 3579 3990 4065 4743 4929 5160 5394 5724 6820 6913 8106 9311 9315 9316 10613 10623 10713 10722 
	}
	buildings_max_level_factor=1.000
}
