
state={
	id=283
	name="STATE_283"
	history={
		owner = AFR
		buildings = {
			infrastructure = 4

		}
		add_core_of = AFR

	}
	provinces={
		1196 1397 1476 1514 1956 3719 4144 4636 5111 5457 5934 7524 8811 8950 9330 12174 12205 12248 12249 12270 12351 
	}
	manpower=0
	buildings_max_level_factor=1.000
}
