state={
	id=288
	name="STATE_288"
		history={
		owner = ARG
		buildings = {
			infrastructure = 4

		}
		add_core_of = ARG

	}

	provinces={
		73 139 467 1718 3094 4869 5401 5429 5778 6592 7223 7747 8208 9559 9561 9572 9582 9604 9605 9625 9629 9635 
	}
	manpower=0
	buildings_max_level_factor=1.000
}
