state={
	id=297
	name="STATE_297"
		history={
		owner = SIA
		buildings = {
			infrastructure = 4

		}
		add_core_of = SIA

	}
	provinces={
		975 1015 1342 2498 2541 2835 3248 4837 5068 5078 7367 7882 8352 10996 11002 11108 11154 
	}
	manpower=0
	buildings_max_level_factor=1.000
}
