state={
	id=298
	name="STATE_298"
		history={
		owner = CAN
		buildings = {
			infrastructure = 4

		}
		add_core_of = CAN

	}
	provinces={
		54 213 256 446 1104 1293 1576 1702 1842 1848 1925 2074 2077 2420 2619 2814 2854 3445 3726 3838 4134 4172 4256 4389 4441 4522 4763 5102 5827 6531 6655 6808 7249 7298 8120 8399 8927 9324 11752 11766 11829 11861 11883 11913 11938 12020 12025 12063 12113 12138 
	}
	manpower=0
	buildings_max_level_factor=1.000
}
