state={
	id=30
	name="Newer Zealand"
	state_category = town
	history={
		owner = AST
		add_core_of = AST
		victory_points = { 7549 5 }
	}
	provinces={
		6515 7549 9155 9613 
	}
	manpower=45012
	buildings_max_level_factor=1.000
}
