
state={
	id=300
	name="STATE_300"
	manpower=1500000

	history={
		owner = USA
		victory_points = {
			10848 20	
		}
		buildings = {
			infrastructure = 4

		}
		add_core_of = USA

	}

	provinces={
		922 1053 1133 1332 2482 2493 3567 3807 3907 3930 4918 5131 5737 6408 6799 6923 8103 8242 8499 9140 9272 10741 10825 10848 10853 10948 
	}
	manpower=0
	buildings_max_level_factor=1.000
}
