state={
	id=310
	name="STATE_310"
	manpower=1500000

	history={
		owner = USA
		buildings = {
			infrastructure = 4

		}
		add_core_of = USA

	}

	provinces={
		374 1667 3178 3395 5166 7082 8607 10389 10434 10472 10504 10531 14087 
	}
	manpower=0
	buildings_max_level_factor=1.000
}
