state={
	id=312
	name="New Chicago"

	history={
		owner = USA
		buildings = {
			infrastructure = 7
		}
		victory_points = {
			1089 30
		}
		add_core_of = USA

	}
	state_category = megalopolis
	provinces={
		1089 
	}
	manpower=6203810
	buildings_max_level_factor=1.000
}
