state={
	id=321
	name="Orson Lake"

	history={
		owner = USA
		buildings = {
			infrastructure = 2
		}
		victory_points = {
			7468 5
		}
		add_core_of = USA

	}
	state_category = rural
	provinces={
		714 2094 7468 7895 8476 9399 
	}
	manpower=169263
	buildings_max_level_factor=1.000
}
