state={
	id=329
	name="STATE_329"
	manpower=1500000

	history={
		owner = USA
		buildings = {
			infrastructure = 4

		}
		add_core_of = USA

	}
	provinces={
		1216 1584 1879 2748 3045 3540 3954 5011 6024 6442 6524 6819 7008 7416 8184 8190 8490 9212 10765 10785 10875 10922 
	}
	manpower=0
	buildings_max_level_factor=1.000
}
