state={
	id=339
	name="STATE_339"
	manpower=1500000

	history={
		owner = USA
		buildings = {
			infrastructure = 4

		}
		add_core_of = USA

	}
	provinces={
		568 1425 1569 2578 3364 3675 3979 4017 5731 6343 6384 6481 7178 7322 10539 10651 10689 10711 10819 10867 10913 14093 
	}
	manpower=0
	buildings_max_level_factor=1.000
}
