state={
	id=340
	name="STATE_340"
	manpower=1500000

	history={
		owner = USA
		buildings = {
			infrastructure = 4

		}
		add_core_of = USA

	}
	provinces={
		166 637 978 1404 2397 2795 3633 3834 4099 5109 5736 6027 6135 6609 8935 10684 10725 10800 10858 10876 10914 
	}
	manpower=0
	buildings_max_level_factor=1.000
}
