state={
	id=341
	name="STATE_341"
	manpower=1500000

	history={
		owner = USA
		buildings = {
			infrastructure = 4

		}
		add_core_of = USA

	}
	provinces={
		1427 1430 1544 2412 2486 2917 3639 3936 4046 4317 5763 5807 6296 6431 7113 7822 8052 8975 9386 11048 11088 11107 11126 11132 
	}
	manpower=0
	buildings_max_level_factor=1.000
}
