state={
	id=357
	name="Twin Cities"
	history={
		owner = MEX
		add_core_of = MEX
		buildings = {
			infrastructure = 6
		}
		victory_points = {
			9489 15
		}
		victory_points = {
			9491 20
		}
	}
	provinces={
		698 939 1276 1290 1564 2389 2678 2868 2914 3154 3209 3796 3969 4092 4606 5157 5456 5749 6491 6596 7033 7715 7725 8203 8264 8510 8646 8667 8714 8991 9358 9489 9491 9505 9506 9516 9518 9519 9542 
	}
	state_category = city
	manpower=5382066
	buildings_max_level_factor=1.000
}
