state={
	id=358
	name="STATE_358"
	history={
		owner = ENG
		buildings = {
			infrastructure = 4

		}
		add_core_of = ENG

	}
	provinces={
		282 492 2150 2641 3246 4713 5630 6434 7781 8259 9234 9700 9716 9746 9757 
	}
	manpower=0
	buildings_max_level_factor=1.000
}
