state={
	id=359
	name="STATE_359"
	history={
		owner = ENG
		buildings = {
			infrastructure = 4

		}
		add_core_of = ENG

	}
	provinces={
		1871 2407 4149 5471 6815 7286 8046 8966 9098 9842 9898 
	}
	manpower=0
	buildings_max_level_factor=1.000
}
