state={
	id=368
	name="STATE_368"
	history={
		owner = ENG
		buildings = {
			infrastructure = 4

		}
		add_core_of = ENG

	}
	provinces={
		208 370 399 765 819 974 1113 3071 3484 3545 3553 3661 3833 4412 4689 5577 5942 6176 6529 7065 7126 7764 8212 8424 8766 9004 9010 9309 11120 11226 11236 11265 11331 11360 11391 
	}
	manpower=0
	buildings_max_level_factor=1.000
}
