state={
	id=370
	name="STATE_370"
	history={
		owner = ENG
		buildings = {
			infrastructure = 4

		}
		add_core_of = ENG

	}
	provinces={
		136 480 484 861 1007 1235 1261 1398 1593 2061 2245 2587 3186 3424 4215 4439 5015 5186 5951 6142 6161 6243 7026 7384 7651 7685 8298 8635 8952 9195 10797 10837 10907 11079 11101 
	}
	manpower=0
	buildings_max_level_factor=1.000
}
