state={
	id=389
	name="STATE_389"
		history={
		owner = RUS
		buildings = {
			infrastructure = 4

		}
		add_core_of = RUS

	}
	provinces={
		307 526 639 863 1278 1578 1678 2135 2558 3198 3539 3702 3710 4608 4619 5187 6231 6256 6288 6586 6920 8179 8429 10732 10759 10839 10868 10937 10950 10972 10987 11027 
	}
	manpower=0
	buildings_max_level_factor=1.000
}
