state={
	id=391
	name="STATE_391"
		history={
		owner = RUS
		buildings = {
			infrastructure = 4

		}
		add_core_of = RUS

	}
	provinces={
		253 422 441 474 614 956 1222 1733 2323 2436 2777 3182 3210 3406 3803 3943 4170 4617 4701 4715 4854 5057 5349 5546 5701 5828 7574 7653 7783 7920 8253 8269 8286 8495 9093 9249 9369 10583 10599 10650 10677 10687 10731 10738 10817 10821 10828 10870 10879 10904 10910 
	}
	manpower=0
	buildings_max_level_factor=1.000
}
