state={
	id=401
	name="STATE_401"
		history={
		owner = RUS
		buildings = {
			infrastructure = 4

		}
		add_core_of = RUS

	}
	provinces={
		267 403 566 895 1076 1164 1610 1967 2552 2801 3419 3462 3734 3756 3779 3790 3800 3809 4657 5435 5669 5716 5757 5877 7191 7251 7813 7815 7860 8227 8344 8548 8655 9002 9064 9133 9300 11587 11592 11597 11627 11636 11660 11677 11715 11723 11739 11749 11760 11768 11769 11859 11876 
	}
	manpower=0
	buildings_max_level_factor=1.000
}
