state={
	id=408
	name="STATE_408"
	history={
		owner = SWI
		add_core_of = SWI
	}
	provinces={
		186 913 1044 1335 2014 3405 4371 4909 6244 6919 6952 8803 10655 10742 10786 10856 
	}
	manpower=0
	buildings_max_level_factor=1.000
}
