state={
	id=417
	name="STATE_417"
	history={
		owner = EUR
		add_core_of = EUR
	}
	provinces={
		500 694 697 951 1512 2365 3065 3316 4245 6831 7072 7087 7705 8813 9024 10724 10767 10778 10823 10882 
	}
	manpower=0
	buildings_max_level_factor=1.000
}
