state={
	id=423
	name="STATE_423"
	history={
		owner = EUR
		add_core_of = EUR
	}
	provinces={
		69 508 682 3551 3774 4084 5560 6869 7567 8925 11111 11197 
	}
	manpower=0
	buildings_max_level_factor=1.000
}
