state={
	id=442
	name="STATE_442"
	history={
		owner = INS
		buildings = {
			infrastructure = 4

		}
		add_core_of = INS

	}

	provinces={
		738 1316 2667 3152 3550 3944 4098 4231 4747 5081 6038 6098 6500 6747 6974 7364 7911 8539 8603 9454 10179 10226 10227 10261 10283 10360 10390 
	}
	manpower=0
	buildings_max_level_factor=1.000
}
