state={
	id=455
	name="STATE_455"
	history={
		owner = AFR
		buildings = {
			infrastructure = 4

		}
		add_core_of = AFR

	}
	provinces={
		12 338 449 454 701 1161 1304 1638 1734 1981 1985 2154 3004 3111 3179 3450 3827 3881 3914 4249 4272 4851 5632 5754 5819 6007 6691 6761 7046 7066 7284 7320 7466 7604 7662 8338 8511 8590 8772 8819 9044 9049 9120 10814 10892 10909 10924 10927 11008 11074 11104 11128 11146 11165 11219 11238 11298 11324 11341 11345 11418 11422 
	}
	manpower=0
	buildings_max_level_factor=1.000
}
