state={
	id=463
	name="STATE_463"
	history={
		owner = CAN
		buildings = {
			infrastructure = 1
		}
		add_core_of = CAN
	}
	state_category = pastoral
	provinces={
		585 590 1225 1254 1387 1695 2209 2418 2514 4189 4580 4847 4987 5945 5957 6182 6276 7172 7201 7999 8176 8687 8945 9283 12170 12210 12247 
	}
	manpower=0
	buildings_max_level_factor=1.000
}
