state={
	id=470
	name="STATE_470"
	history={
		owner = CAN
		buildings = {
			infrastructure = 1
		}
		add_core_of = CAN
	}
	state_category = pastoral
	provinces={
		99 1009 1109 1296 1381 2548 2647 3298 3391 3872 5548 7083 7807 7916 8084 8411 9455 12374 12440 12472 12480 12489 12493 12519 
	}
	manpower=0
	buildings_max_level_factor=1.000
}
