
state={
	id=471
	name="STATE_471"
	history={
		owner = CAN
		buildings = {
			infrastructure = 1
		}
		add_core_of = CAN
	}
	state_category = pastoral
	provinces={
		56 758 808 3527 3585 3778 3887 3937 5012 5592 5673 5728 7438 7915 8187 9078 9176 12319 12348 12420 12439 12471 
	}
	manpower=0
	buildings_max_level_factor=1.000
}
