state={
	id=473
	name="STATE_473"
	history={
		owner = RAJ
		buildings = {
			infrastructure = 1
		}
		add_core_of = RAJ
	}
	state_category = pastoral
	provinces={
		510 763 1049 1068 2165 2483 2658 2922 3929 4232 5031 6258 6303 7116 7375 7382 8243 9023 11808 11920 11959 11965 11993 12006 
	}
	manpower=0
	buildings_max_level_factor=1.000
}
