state={
	id=477
	name="STATE_477"
	history={
		owner = RAJ
		buildings = {
			infrastructure = 1
		}
		add_core_of = RAJ
	}
	state_category = pastoral
	provinces={
		502 616 926 1340 1347 1772 2736 4258 5013 5536 5584 5889 6215 7019 7340 7541 7970 8445 8961 8965 9113 9426 9456 12260 12300 12344 12380 12417 12434 12435 12520 
	}
	manpower=0
	buildings_max_level_factor=1.000
}
