state={
	id=480
	name="STATE_480"
	history={
		owner = RAJ
		buildings = {
			infrastructure = 1
		}
		add_core_of = RAJ
	}
	state_category = pastoral
	provinces={
		124 188 212 825 1041 1386 1624 1778 1891 1996 2039 2050 2467 2629 2661 3492 3535 4301 4568 4733 5344 5511 5518 5776 6475 6551 6959 7092 7208 7250 7441 7733 7968 8530 8988 9339 11825 11835 11836 11872 11932 11956 11957 11990 12022 12077 12095 12190 
	}
	manpower=0
	buildings_max_level_factor=1.000
}
