state={
	id=482
	name="STATE_482"
	history={
		owner = ARG
		buildings = {
			infrastructure = 1
		}
		add_core_of = ARG
	}
	state_category = pastoral
	provinces={
		298 592 1250 1500 2329 2581 3187 3327 3643 4387 5028 5184 5602 5845 6212 7494 7664 7872 8856 9615 9640 9679 9682 9694 9730 9733 9750 9779 14027 14037 
	}
	manpower=0
	buildings_max_level_factor=1.000
}
