state={
	id=491
	name="STATE_491"
	history={
		owner = SAU
		buildings = {
			infrastructure = 1
		}
		add_core_of = SAU
	}
	state_category = pastoral
	provinces={
		1280 2648 3190 3503 3761 5265 6917 7464 7522 7773 8605 11030 11080 11161 11199 
	}
	manpower=0
	buildings_max_level_factor=1.000
}
