
state={
	id=506
	name="STATE_506"

	history={
		owner = JAP
		buildings = {
			infrastructure = 1

		}
		add_core_of = JAP

	}

	provinces={
		31 35 716 1485 1862 2263 2333 2403 3296 3442 3476 3592 3785 4110 4552 5177 5305 5502 5556 5570 6807 7028 7100 7765 8332 8738 8899 10433 10571 10581 10584 10593 10622 10639 10644 
	}
	manpower=0
	buildings_max_level_factor=1.000
	state_category=pastoral
}
