state={
	id=510
	name="STATE_510"
	history={
		owner = JAP
		buildings = {
			infrastructure = 1
		}
		add_core_of = JAP
	}
	state_category = pastoral
	provinces={
		905 1435 1700 3006 3080 3767 4279 4332 4830 4843 4873 5822 5989 5996 6892 7939 8294 8402 8693 10271 10311 10324 10335 10410 10423 10440 
	}
	manpower=0
	buildings_max_level_factor=1.000
}
