state={
	id=522
	name="STATE_522"
	history={
		owner = BRA
		buildings = {
			infrastructure = 1
		}
		add_core_of = BRA
	}
	state_category = pastoral
	provinces={
		1361 1373 1744 2167 4136 5087 8905 9119 9367 9552 9569 9589 
	}
	manpower=0
	buildings_max_level_factor=1.000
}
