state={
	id=528
	name="STATE_528"
	history={
		owner = BRA
		buildings = {
			infrastructure = 1
		}
		add_core_of = BRA
	}
	state_category = pastoral
	provinces={
		1323 2104 2194 2284 2732 2734 3441 3559 3669 4995 5114 5364 5549 6144 6198 6403 6543 9443 9832 9867 9914 9916 9948 
	}
	manpower=0
	buildings_max_level_factor=1.000
}
