state={
	id=529
	name="STATE_529"

	history={
		owner = CHI
		buildings = {
			infrastructure = 4

		}
		add_core_of = CHI

	}

	provinces={
		743 1149 1648 1790 2035 3904 4255 4526 4892 5428 5938 6440 6623 7114 7657 7736 8156 8211 9031 12367 12394 12589 12590 
	}
	manpower=0
	buildings_max_level_factor=1.000
}
