state={
	id=530
	name="STATE_530"

	history={
		owner = CHI
		buildings = {
			infrastructure = 4

		}
		add_core_of = CHI

	}

	provinces={
		665 961 1337 1403 1555 2192 2860 2864 3054 3432 3948 5151 6139 7755 7885 8007 8297 8720 11497 11530 11541 11565 11608 11700 
	}
	manpower=0
	buildings_max_level_factor=1.000
}
