state={
	id=532
	name="STATE_532"

	history={
		owner = CHI
		buildings = {
			infrastructure = 4

		}
		add_core_of = CHI

	}

	provinces={
		832 1182 1197 2046 2111 2139 2172 2388 2509 2802 3269 3409 3420 3609 3703 4266 4362 4408 4825 4876 5211 5254 5636 5766 5916 6065 6261 7537 7746 7880 8087 8857 9017 9260 9342 12552 12555 12556 12581 12603 12607 12679 12682 12705 12724 12744 12761 12800 
	}
	manpower=0
	buildings_max_level_factor=1.000
}
