state={
	id=541
	name="STATE_541"
	history={
		owner = KOR
		buildings = {
			infrastructure = 1
		}
		add_core_of = KOR
	}
	state_category = pastoral
	provinces={
		915 1465 1565 1653 3506 3977 4130 4208 5718 6453 6951 7035 7601 8835 9714 9734 9741 9755 9758 9765 9775 9805 
	}
	manpower=0
	buildings_max_level_factor=1.000
}
