
state={
	id=544
	name="STATE_544"
	history={
		owner = KOR
		buildings = {
			infrastructure = 1
		}
		add_core_of = KOR
	}
	state_category = pastoral
	provinces={
		79 88 872 1433 1692 1865 1922 2008 2048 2311 2859 2999 3268 3625 3737 4120 4201 4280 4722 4813 5650 5774 6758 6774 6802 7575 8031 8112 8430 9159 9205 9394 9427 9586 9623 9627 9634 9639 9648 9653 9674 9727 
	}
	manpower=0
	buildings_max_level_factor=1.000
}
