state={
	id=546
	name="STATE_546"
	history={
		owner = KOR
		buildings = {
			infrastructure = 1
		}
		add_core_of = KOR
	}
	state_category = pastoral
	provinces={
		507 634 1265 1594 1629 1758 1844 2700 3724 3797 3858 4234 4486 4700 4776 5442 7192 8089 8301 8611 9056 9063 9256 9257 9285 9502 9520 9521 9527 9535 9539 
	}
	manpower=0
	buildings_max_level_factor=1.000
}
