state={
	id=547
	name="STATE_547"
	history={
		owner = KOR
		buildings = {
			infrastructure = 1
		}
		add_core_of = KOR
	}
	state_category = pastoral
	provinces={
		2220 2904 3031 3284 4478 5045 5332 6465 9096 9555 9566 9580 
	}
	manpower=0
	buildings_max_level_factor=1.000
}
