
state={
	id=563
	name="STATE_563"

	history={
		owner = PRC
		add_core_of = PRC

	}

	provinces={
		83 163 1388 3123 3163 3287 4049 4444 4864 4913 5312 5746 7211 7335 7689 9022 9213 9228 9412 11292 11355 11374 11445 11465 11479 
	}
	manpower=0
	buildings_max_level_factor=1.000
}
