state={
	id=566
	name="STATE_566"
	provinces={
		890 1303 1962 2071 2459 2870 3112 3222 3369 3752 3763 4061 5155 5174 5551 5606 5761 6264 6320 6666 7256 7485 7821 8222 8290 8552 8852 9087 9175 11023 11058 11061 11139 11190 11204 11243 11269 
	}
	manpower=0
	buildings_max_level_factor=1.000
}
