
state={
	id=569
	name="STATE_569"
	provinces={
		220 373 1258 1496 2298 2353 2448 2627 3814 3926 4115 5550 5553 5869 6389 6467 6653 6993 8118 8138 8396 8842 9035 10220 10279 10299 10301 10325 10330 10332 10406 10414 10420 
	}
	manpower=0
	buildings_max_level_factor=1.000
}
