state={
	id=574
	name="STATE_574"
	provinces={
		650 1005 1368 1407 1537 1563 1850 3177 3282 3367 3541 3566 4097 4324 4634 5060 5260 5834 6184 6353 6358 6362 6446 6733 7853 7988 7989 8134 8188 8518 8937 9164 9423 10000 10037 10128 10148 10196 
	}
	manpower=0
	buildings_max_level_factor=1.000
}
