state={
	id=577
	name="STATE_577"
	history={
		owner = EUR
		buildings = {
			infrastructure = 1
		}
		add_core_of = EUR
	}
	state_category = pastoral
	provinces={
		378 574 3500 3696 4230 4372 4569 4588 4648 4674 5894 7640 7749 8891 8957 10657 10688 10752 10880 
	}
	manpower=0
	buildings_max_level_factor=1.000
}
