state={
	id=579
	name="STATE_579"
	history={
		owner = EUR
		buildings = {
			infrastructure = 1
		}
		add_core_of = EUR
	}
	state_category = pastoral
	provinces={
		556 970 1017 2106 3227 3841 3951 4348 4601 6178 7098 7513 8566 10425 10491 10516 10656 
	}
	manpower=0
	buildings_max_level_factor=1.000
}
