state={
	id=596
	name="STATE_596"
	history={
		owner = EUR
		buildings = {
			infrastructure = 1
		}
		add_core_of = EUR
	}
	state_category = pastoral
	provinces={
		129 807 1322 2546 3195 3902 4074 4764 5147 6438 7673 7704 7936 8240 8435 11559 11606 11655 11725 
	}
	manpower=0
	buildings_max_level_factor=1.000
}
