state={
	id=599
	name="STATE_599"
	history={
		owner = EUR
		buildings = {
			infrastructure = 1
		}
		add_core_of = EUR
	}
	state_category = pastoral
	provinces={
		615 800 1680 1906 2004 2157 2529 2792 3518 3552 3558 3565 3831 4020 4093 4459 4924 5329 5506 5617 5628 5660 6301 6449 6657 6772 7613 7632 8086 8859 9115 9125 9308 9312 12467 12497 12498 12513 12540 12584 12585 12618 12640 12686 12717 12773 12794 
	}
	manpower=0
	buildings_max_level_factor=1.000
}
