state={
	id=606
	name="STATE_606"
	history={
		owner = EUR
		buildings = {
			infrastructure = 1
		}
		add_core_of = EUR
	}
	state_category = pastoral
	provinces={
		235 1352 1619 2216 3437 3802 4399 4805 6708 7167 7987 8340 9237 11650 11730 11746 11788 11789 11843 
	}
	manpower=0
	buildings_max_level_factor=1.000
}
