state={
	id=609
	name="STATE_609"
	history={
		owner = EUR
		buildings = {
			infrastructure = 1
		}
		add_core_of = EUR
	}
	state_category = pastoral
	provinces={
		969 1170 1477 2857 3130 4191 4451 4559 5663 6334 6420 6688 6791 7275 8164 8268 11701 11770 
	}
	manpower=0
	buildings_max_level_factor=1.000
}
