state={
	id=611
	name="STATE_611"
	history={
		owner = EUR
		buildings = {
			infrastructure = 1
		}
		add_core_of = EUR
	}
	state_category = pastoral
	provinces={
		270 1474 2704 2739 3413 3480 4565 4590 4703 4943 5681 6289 6698 6779 6842 7308 7432 7737 7923 8432 8901 9092 9148 9292 12094 12150 12182 12239 12251 12316 12397 
	}
	manpower=0
	buildings_max_level_factor=1.000
}
