state={
	id=612
	name="STATE_612"
	history={
		owner = EUR
		buildings = {
			infrastructure = 1
		}
		add_core_of = EUR
	}
	state_category = pastoral
	provinces={
		37 420 501 824 1587 2129 2378 2616 4397 4549 5212 5259 5623 6088 6222 6367 6664 6896 6908 7194 7331 7433 7572 8443 8688 8725 8833 8909 9177 12203 12225 12244 12250 12285 12298 12338 12358 12406 
	}
	manpower=0
	buildings_max_level_factor=1.000
}
