state={
	id=613
	name="STATE_613"
	history={
		owner = EUR
		buildings = {
			infrastructure = 1
		}
		add_core_of = EUR
	}
	state_category = pastoral
	provinces={
		2240 2501 3704 5308 5887 6578 6673 7557 11614 11645 11679 11707 11779 
	}
	manpower=0
	buildings_max_level_factor=1.000
}
