state={
	id=618
	name="STATE_618"
	history={
		owner = EUR
		buildings = {
			infrastructure = 1
		}
		add_core_of = EUR
	}
	state_category = pastoral
	provinces={
		671 875 907 2214 3699 4705 4906 7063 7233 7863 7950 11174 11207 11237 11255 11285 11328 
	}
	manpower=0
	buildings_max_level_factor=1.000
}
