#Deleted for debugging


#	Example:
# 
#	example_effect = {
#		add_political_power = 66
#		add_popularity = {
#			ideology = fascism
#			popularity = 0.33
#		}
#	}
#
#
#	In a script file:
#
#	effect = {
#		example_effect = yes
#	}
#
